waveforms.vcd
$date
     Nov 22, 2017       11:44:19
$end

$version
 SystemC 2.3.1-Accellera --- Sep 20 2017 08:49:05
$end

$timescale
     1 ps
$end

$scope module SystemC $end
$var wire    1  aaaaa  clk       $end
$var wire    1  aaaab  rst_n       $end
$var wire   32  aaaac  haddr [31:0]  $end
$var wire   32  aaaad  hwdata [31:0]  $end
$var wire   32  aaaae  hrdata_to_cpu [31:0]  $end
$var wire    1  aaaaf  hwrite       $end
$var wire   32  aaaag  hrdata_to_i2c [31:0]  $end
$var wire   32  aaaah  hrdata_to_din_dout [31:0]  $end
$var wire    1  aaaai  hsel_i2c       $end
$var wire    1  aaaaj  hsel_dig       $end
$var wire    7  aaaak  s_self_addr [6:0]  $end
$var wire    8  aaaal  s_data_out [7:0]  $end
$var wire    1  aaaam  s_ready       $end
$var wire    1  aaaan  sda       $end
$var wire    1  aaaao  scl       $end
$upscope $end
$enddefinitions  $end

$comment
All initial values are dumped below at time 0 sec = 0 timescale units.
$end

$dumpvars
1aaaaa
0aaaab
b0 aaaac
b0 aaaad
b0 aaaae
0aaaaf
b0 aaaag
b0 aaaah
0aaaai
0aaaaj
b110101 aaaak
b0 aaaal
1aaaam
1aaaan
1aaaao
$end

#5000
0aaaaa

#10000
1aaaaa

#15000
0aaaaa

#20000
1aaaaa
1aaaab
b10000000000000000000000000000100 aaaac
1aaaaf

#25000
0aaaaa
1aaaai

#30000
1aaaaa
b110101 aaaad
0aaaaf

#35000
0aaaaa

#40000
1aaaaa
b10000000000000000000000000001000 aaaac
1aaaaf

#45000
0aaaaa

#50000
1aaaaa
b10010000000000000000000000000 aaaad
0aaaaf

#55000
0aaaaa

#60000
1aaaaa
b10000000000000000000000000001100 aaaac

#65000
0aaaaa

#70000
1aaaaa

#75000
0aaaaa

#80000
1aaaaa

#85000
0aaaaa

#90000
1aaaaa
0aaaan

#95000
0aaaaa

#100000
1aaaaa
0aaaao

#105000
0aaaaa

#110000
1aaaaa
0aaaam

#115000
0aaaaa

#120000
1aaaaa
1aaaao

#125000
0aaaaa

#130000
1aaaaa

#135000
0aaaaa

#140000
1aaaaa
0aaaao

#145000
0aaaaa

#150000
1aaaaa
1aaaan

#155000
0aaaaa

#160000
1aaaaa
1aaaao

#165000
0aaaaa

#170000
1aaaaa

#175000
0aaaaa

#180000
1aaaaa
0aaaao

#185000
0aaaaa

#190000
1aaaaa

#195000
0aaaaa

#200000
1aaaaa
1aaaao

#205000
0aaaaa

#210000
1aaaaa

#215000
0aaaaa

#220000
1aaaaa
0aaaao

#225000
0aaaaa

#230000
1aaaaa
0aaaan

#235000
0aaaaa

#240000
1aaaaa
1aaaao

#245000
0aaaaa

#250000
1aaaaa

#255000
0aaaaa

#260000
1aaaaa
0aaaao

#265000
0aaaaa

#270000
1aaaaa
1aaaan

#275000
0aaaaa

#280000
1aaaaa
1aaaao

#285000
0aaaaa

#290000
1aaaaa

#295000
0aaaaa

#300000
1aaaaa
0aaaao

#305000
0aaaaa

#310000
1aaaaa
0aaaan

#315000
0aaaaa

#320000
1aaaaa
1aaaao

#325000
0aaaaa

#330000
1aaaaa

#335000
0aaaaa

#340000
1aaaaa
0aaaao

#345000
0aaaaa

#350000
1aaaaa
1aaaan

#355000
0aaaaa

#360000
1aaaaa
1aaaao

#365000
0aaaaa

#370000
1aaaaa

#375000
0aaaaa

#380000
1aaaaa
0aaaao

#385000
0aaaaa

#390000
1aaaaa
0aaaan

#395000
0aaaaa

#400000
1aaaaa
1aaaao

#405000
0aaaaa

#410000
1aaaaa

#415000
0aaaaa

#420000
1aaaaa
0aaaao

#425000
0aaaaa

#430000
1aaaaa

#435000
0aaaaa

#440000
1aaaaa
1aaaao

#445000
0aaaaa

#450000
1aaaaa
b1101010 aaaal

#455000
0aaaaa

#460000
1aaaaa
0aaaao

#465000
0aaaaa

#470000
1aaaaa

#475000
0aaaaa

#480000
1aaaaa
1aaaao

#485000
0aaaaa

#490000
1aaaaa

#495000
0aaaaa

#500000
1aaaaa
0aaaao

#505000
0aaaaa

#510000
1aaaaa

#515000
0aaaaa

#520000
1aaaaa
1aaaao

#525000
0aaaaa

#530000
1aaaaa

#535000
0aaaaa

#540000
1aaaaa
0aaaao

#545000
0aaaaa

#550000
1aaaaa

#555000
0aaaaa

#560000
1aaaaa
1aaaao

#565000
0aaaaa

#570000
1aaaaa

#575000
0aaaaa

#580000
1aaaaa
0aaaao

#585000
0aaaaa

#590000
1aaaaa

#595000
0aaaaa

#600000
1aaaaa
1aaaao

#605000
0aaaaa

#610000
1aaaaa

#615000
0aaaaa

#620000
1aaaaa
0aaaao

#625000
0aaaaa

#630000
1aaaaa

#635000
0aaaaa

#640000
1aaaaa
1aaaao

#645000
0aaaaa

#650000
1aaaaa

#655000
0aaaaa

#660000
1aaaaa
0aaaao

#665000
0aaaaa

#670000
1aaaaa

#675000
0aaaaa

#680000
1aaaaa
1aaaao

#685000
0aaaaa

#690000
1aaaaa

#695000
0aaaaa

#700000
1aaaaa
0aaaao

#705000
0aaaaa

#710000
1aaaaa

#715000
0aaaaa

#720000
1aaaaa
1aaaao

#725000
0aaaaa

#730000
1aaaaa

#735000
0aaaaa

#740000
1aaaaa
0aaaao

#745000
0aaaaa

#750000
1aaaaa

#755000
0aaaaa

#760000
1aaaaa
1aaaao

#765000
0aaaaa

#770000
1aaaaa

#775000
0aaaaa

#780000
1aaaaa
0aaaao

#785000
0aaaaa

#790000
1aaaaa

#795000
0aaaaa

#800000
1aaaaa
1aaaao

#805000
0aaaaa

#810000
1aaaaa
b0 aaaal

#815000
0aaaaa

#820000
1aaaaa
0aaaao

#825000
0aaaaa

#830000
1aaaaa

#835000
0aaaaa

#840000
1aaaaa

#845000
0aaaaa

#850000
1aaaaa

#855000
0aaaaa

#860000
1aaaaa

#865000
0aaaaa

#870000
1aaaaa
b1 aaaag

#875000
0aaaaa
b1 aaaae

#880000
1aaaaa

#885000
0aaaaa

#890000
1aaaaa

#895000
0aaaaa

#900000
1aaaaa
b10000000000000000000000000001000 aaaac
1aaaaf

#905000
0aaaaa

#910000
1aaaaa
b11101000000000000000000000000 aaaad
0aaaaf

#915000
0aaaaa

#920000
1aaaaa
b10000000000000000000000000001100 aaaac

#925000
0aaaaa

#930000
1aaaaa
b0 aaaag
1aaaan

#935000
0aaaaa
b0 aaaae

#940000
1aaaaa
1aaaao

#945000
0aaaaa

#950000
1aaaaa
0aaaan

#955000
0aaaaa

#960000
1aaaaa
0aaaao

#965000
0aaaaa

#970000
1aaaaa

#975000
0aaaaa

#980000
1aaaaa
1aaaao

#985000
0aaaaa

#990000
1aaaaa

#995000
0aaaaa

#1000000
1aaaaa
0aaaao

#1005000
0aaaaa

#1010000
1aaaaa
1aaaan

#1015000
0aaaaa

#1020000
1aaaaa
1aaaao

#1025000
0aaaaa

#1030000
1aaaaa

#1035000
0aaaaa

#1040000
1aaaaa
0aaaao

#1045000
0aaaaa

#1050000
1aaaaa

#1055000
0aaaaa

#1060000
1aaaaa
1aaaao

#1065000
0aaaaa

#1070000
1aaaaa

#1075000
0aaaaa

#1080000
1aaaaa
0aaaao

#1085000
0aaaaa

#1090000
1aaaaa
0aaaan

#1095000
0aaaaa

#1100000
1aaaaa
1aaaao

#1105000
0aaaaa

#1110000
1aaaaa

#1115000
0aaaaa

#1120000
1aaaaa
0aaaao

#1125000
0aaaaa

#1130000
1aaaaa
1aaaan

#1135000
0aaaaa

#1140000
1aaaaa
1aaaao

#1145000
0aaaaa

#1150000
1aaaaa

#1155000
0aaaaa

#1160000
1aaaaa
0aaaao

#1165000
0aaaaa

#1170000
1aaaaa
0aaaan

#1175000
0aaaaa

#1180000
1aaaaa
1aaaao

#1185000
0aaaaa

#1190000
1aaaaa

#1195000
0aaaaa

#1200000
1aaaaa
0aaaao

#1205000
0aaaaa

#1210000
1aaaaa
1aaaan

#1215000
0aaaaa

#1220000
1aaaaa
1aaaao

#1225000
0aaaaa

#1230000
1aaaaa

#1235000
0aaaaa

#1240000
1aaaaa
0aaaao

#1245000
0aaaaa

#1250000
1aaaaa

#1255000
0aaaaa

#1260000
1aaaaa
1aaaao

#1265000
0aaaaa

#1270000
1aaaaa

#1275000
0aaaaa

#1280000
1aaaaa
0aaaao

#1285000
0aaaaa

#1290000
1aaaaa
0aaaan

#1295000
0aaaaa

#1300000
1aaaaa
1aaaao

#1305000
0aaaaa

#1310000
1aaaaa
b1101011 aaaal

#1315000
0aaaaa

#1320000
1aaaaa
0aaaao

#1325000
0aaaaa

#1330000
1aaaaa

#1335000
0aaaaa

#1340000
1aaaaa
1aaaao

#1345000
0aaaaa

#1350000
1aaaaa

#1355000
0aaaaa

#1360000
1aaaaa
0aaaao

#1365000
0aaaaa

#1370000
1aaaaa

#1375000
0aaaaa

#1380000
1aaaaa
1aaaao

#1385000
0aaaaa

#1390000
1aaaaa

#1395000
0aaaaa

#1400000
1aaaaa
0aaaao

#1405000
0aaaaa

#1410000
1aaaaa

#1415000
0aaaaa

#1420000
1aaaaa
1aaaao

#1425000
0aaaaa

#1430000
1aaaaa

#1435000
0aaaaa

#1440000
1aaaaa
0aaaao

#1445000
0aaaaa

#1450000
1aaaaa

#1455000
0aaaaa

#1460000
1aaaaa
1aaaao

#1465000
0aaaaa

#1470000
1aaaaa

#1475000
0aaaaa

#1480000
1aaaaa
0aaaao

#1485000
0aaaaa

#1490000
1aaaaa

#1495000
0aaaaa

#1500000
1aaaaa
1aaaao

#1505000
0aaaaa

#1510000
1aaaaa

#1515000
0aaaaa

#1520000
1aaaaa
0aaaao

#1525000
0aaaaa

#1530000
1aaaaa

#1535000
0aaaaa

#1540000
1aaaaa
1aaaao

#1545000
0aaaaa

#1550000
1aaaaa

#1555000
0aaaaa

#1560000
1aaaaa
0aaaao

#1565000
0aaaaa

#1570000
1aaaaa

#1575000
0aaaaa

#1580000
1aaaaa
1aaaao

#1585000
0aaaaa

#1590000
1aaaaa

#1595000
0aaaaa

#1600000
1aaaaa
0aaaao

#1605000
0aaaaa

#1610000
1aaaaa
1aaaan

#1615000
0aaaaa

#1620000
1aaaaa
1aaaao

#1625000
0aaaaa

#1630000
1aaaaa

#1635000
0aaaaa

#1640000
1aaaaa
0aaaao

#1645000
0aaaaa

#1650000
1aaaaa
0aaaan

#1655000
0aaaaa

#1660000
1aaaaa
1aaaao

#1665000
0aaaaa

#1670000
1aaaaa

#1675000
0aaaaa

#1680000
1aaaaa
0aaaao

#1685000
0aaaaa

#1690000
1aaaaa
1aaaan

#1695000
0aaaaa

#1700000
1aaaaa
1aaaao

#1705000
0aaaaa

#1710000
1aaaaa

#1715000
0aaaaa

#1720000
1aaaaa
0aaaao

#1725000
0aaaaa

#1730000
1aaaaa
0aaaan

#1735000
0aaaaa

#1740000
1aaaaa
1aaaao

#1745000
0aaaaa

#1750000
1aaaaa

#1755000
0aaaaa

#1760000
1aaaaa
0aaaao

#1765000
0aaaaa

#1770000
1aaaaa

#1775000
0aaaaa

#1780000
1aaaaa
1aaaao

#1785000
0aaaaa

#1790000
1aaaaa

#1795000
0aaaaa

#1800000
1aaaaa
0aaaao

#1805000
0aaaaa

#1810000
1aaaaa
1aaaan

#1815000
0aaaaa

#1820000
1aaaaa
1aaaao

#1825000
0aaaaa

#1830000
1aaaaa

#1835000
0aaaaa

#1840000
1aaaaa
0aaaao

#1845000
0aaaaa

#1850000
1aaaaa
0aaaan

#1855000
0aaaaa

#1860000
1aaaaa
1aaaao

#1865000
0aaaaa

#1870000
1aaaaa

#1875000
0aaaaa

#1880000
1aaaaa
0aaaao

#1885000
0aaaaa

#1890000
1aaaaa

#1895000
0aaaaa

#1900000
1aaaaa
1aaaao

#1905000
0aaaaa

#1910000
1aaaaa

#1915000
0aaaaa

#1920000
1aaaaa
0aaaao

#1925000
0aaaaa

#1930000
1aaaaa

#1935000
0aaaaa

#1940000
1aaaaa
1aaaao

#1945000
0aaaaa

#1950000
1aaaaa

#1955000
0aaaaa

#1960000
1aaaaa
0aaaao

#1965000
0aaaaa

#1970000
1aaaaa

#1975000
0aaaaa

#1980000
1aaaaa
1aaaao

#1985000
0aaaaa

#1990000
1aaaaa

#1995000
0aaaaa

#2000000
1aaaaa
0aaaao

#2005000
0aaaaa

#2010000
1aaaaa
1aaaan

#2015000
0aaaaa

#2020000
1aaaaa
1aaaao

#2025000
0aaaaa

#2030000
1aaaaa

#2035000
0aaaaa

#2040000
1aaaaa
0aaaao

#2045000
0aaaaa

#2050000
1aaaaa
0aaaan

#2055000
0aaaaa

#2060000
1aaaaa
1aaaao

#2065000
0aaaaa

#2070000
1aaaaa
1aaaan

#2075000
0aaaaa

#2080000
1aaaaa

#2085000
0aaaaa

#2090000
1aaaaa
b1 aaaag
1aaaam

#2095000
0aaaaa
b1 aaaae

#2100000
1aaaaa

#2105000
0aaaaa

#2110000
1aaaaa

#2115000
0aaaaa

#2120000
1aaaaa
b10000000000000000000000000010000 aaaac

#2125000
0aaaaa

#2130000
1aaaaa
b110010000 aaaag

#2135000
0aaaaa
b110010000 aaaae

#2140000
1aaaaa

#2145000
0aaaaa

#2150000
1aaaaa
b1000000000000000000000000001000 aaaac
1aaaaf

#2155000
0aaaaa

#2160000
1aaaaa
b1111111111111 aaaad
0aaaaf

#2165000
0aaaaa
0aaaai
1aaaaj

#2170000
1aaaaa
b10000000000000000000000000000100 aaaac
1aaaaf

#2175000
0aaaaa
b0 aaaae

#2180000
1aaaaa
b110101 aaaad
0aaaaf

#2185000
0aaaaa
1aaaai
0aaaaj

#2190000
1aaaaa
b10000000000000000000000000001000 aaaac
1aaaaf
b110101 aaaag

#2195000
0aaaaa
b110101 aaaae

#2200000
1aaaaa
b10010000000000000000000000000 aaaad
0aaaaf

#2205000
0aaaaa

#2210000
1aaaaa
b10000000000000000000000000001100 aaaac
b1101000000000000000000000000 aaaag

#2215000
0aaaaa
b1101000000000000000000000000 aaaae

#2220000
1aaaaa

#2225000
0aaaaa

#2230000
1aaaaa
b1 aaaag

#2235000
0aaaaa
b1 aaaae

#2240000
1aaaaa
b10000000000000000000000000001000 aaaac
1aaaaf

#2245000
0aaaaa

#2250000
1aaaaa
b11101000000000000000000000000 aaaad
0aaaaf

#2255000
0aaaaa

#2260000
1aaaaa
b10000000000000000000000000001100 aaaac

#2265000
0aaaaa

#2270000
1aaaaa
b0 aaaag

#2275000
0aaaaa
b0 aaaae

#2280000
1aaaaa

#2285000
0aaaaa

#2290000
1aaaaa
0aaaan

