waveforms.vcd
$date
     Oct 25, 2017       11:12:51
$end

$version
 SystemC 2.3.1-Accellera --- Sep 20 2017 08:49:05
$end

$timescale
     1 ps
$end

$scope module SystemC $end
$var wire    1  aaaaa  clk       $end
$var wire    1  aaaab  rst_n       $end
$var wire   32  aaaac  haddr [31:0]  $end
$var wire   32  aaaad  hwdata [31:0]  $end
$var wire   32  aaaae  hrdata [31:0]  $end
$var wire    1  aaaaf  hwrite       $end
$var wire    7  aaaag  s_self_addr [6:0]  $end
$var wire    8  aaaah  s_data_out [7:0]  $end
$var wire    1  aaaai  s_ready       $end
$var wire    1  aaaaj  sda       $end
$var wire    1  aaaak  scl       $end
$upscope $end
$enddefinitions  $end

$comment
All initial values are dumped below at time 0 sec = 0 timescale units.
$end

$dumpvars
1aaaaa
0aaaab
b0 aaaac
b0 aaaad
b0 aaaae
0aaaaf
b110101 aaaag
b0 aaaah
1aaaai
1aaaaj
1aaaak
$end

#5000
0aaaaa

#10000
1aaaaa

#15000
0aaaaa

#20000
1aaaaa
1aaaab
b10000000000000000000000000000100 aaaac
1aaaaf

#25000
0aaaaa

#30000
1aaaaa
b11010100000000 aaaad
0aaaaf

#35000
0aaaaa

#40000
1aaaaa
b10000000000000000000000000001000 aaaac
1aaaaf

#45000
0aaaaa

#50000
1aaaaa
b1110000000000000000 aaaad
0aaaaf

#55000
0aaaaa

#60000
1aaaaa
b10000000000000000000000000001100 aaaac

#65000
0aaaaa

#70000
1aaaaa

#75000
0aaaaa

#80000
1aaaaa

#85000
0aaaaa

#90000
1aaaaa
0aaaaj

#95000
0aaaaa

#100000
1aaaaa
0aaaak

#105000
0aaaaa

#110000
1aaaaa
0aaaai

#115000
0aaaaa

#120000
1aaaaa
1aaaak

#125000
0aaaaa

#130000
1aaaaa

#135000
0aaaaa

#140000
1aaaaa
0aaaak

#145000
0aaaaa

#150000
1aaaaa
1aaaaj

#155000
0aaaaa

#160000
1aaaaa
1aaaak

#165000
0aaaaa

#170000
1aaaaa

#175000
0aaaaa

#180000
1aaaaa
0aaaak

#185000
0aaaaa

#190000
1aaaaa

#195000
0aaaaa

#200000
1aaaaa
1aaaak

#205000
0aaaaa

#210000
1aaaaa

#215000
0aaaaa

#220000
1aaaaa
0aaaak

#225000
0aaaaa

#230000
1aaaaa
0aaaaj

#235000
0aaaaa

#240000
1aaaaa
1aaaak

#245000
0aaaaa

#250000
1aaaaa

#255000
0aaaaa

#260000
1aaaaa
0aaaak

#265000
0aaaaa

#270000
1aaaaa
1aaaaj

#275000
0aaaaa

#280000
1aaaaa
1aaaak

#285000
0aaaaa

#290000
1aaaaa

#295000
0aaaaa

#300000
1aaaaa
0aaaak

#305000
0aaaaa

#310000
1aaaaa
0aaaaj

#315000
0aaaaa

#320000
1aaaaa
1aaaak

#325000
0aaaaa

#330000
1aaaaa

#335000
0aaaaa

#340000
1aaaaa
0aaaak

#345000
0aaaaa

#350000
1aaaaa
1aaaaj

#355000
0aaaaa

#360000
1aaaaa
1aaaak

#365000
0aaaaa

#370000
1aaaaa

#375000
0aaaaa

#380000
1aaaaa
0aaaak

#385000
0aaaaa

#390000
1aaaaa
0aaaaj

#395000
0aaaaa

#400000
1aaaaa
1aaaak

#405000
0aaaaa

#410000
1aaaaa

#415000
0aaaaa

#420000
1aaaaa
0aaaak

#425000
0aaaaa

#430000
1aaaaa

#435000
0aaaaa

#440000
1aaaaa
1aaaak

#445000
0aaaaa

#450000
1aaaaa
b1101010 aaaah

#455000
0aaaaa

#460000
1aaaaa
0aaaak

#465000
0aaaaa

#470000
1aaaaa

#475000
0aaaaa

#480000
1aaaaa
1aaaak

#485000
0aaaaa

#490000
1aaaaa

#495000
0aaaaa

#500000
1aaaaa
0aaaak

#505000
0aaaaa

#510000
1aaaaa

#515000
0aaaaa

#520000
1aaaaa
1aaaak

#525000
0aaaaa

#530000
1aaaaa

#535000
0aaaaa

#540000
1aaaaa
0aaaak

#545000
0aaaaa

#550000
1aaaaa

#555000
0aaaaa

#560000
1aaaaa
1aaaak

#565000
0aaaaa

#570000
1aaaaa

#575000
0aaaaa

#580000
1aaaaa
0aaaak

#585000
0aaaaa

#590000
1aaaaa

#595000
0aaaaa

#600000
1aaaaa
1aaaak

#605000
0aaaaa

#610000
1aaaaa

#615000
0aaaaa

#620000
1aaaaa
0aaaak

#625000
0aaaaa

#630000
1aaaaa

#635000
0aaaaa

#640000
1aaaaa
1aaaak

#645000
0aaaaa

#650000
1aaaaa

#655000
0aaaaa

#660000
1aaaaa
0aaaak

#665000
0aaaaa

#670000
1aaaaa

#675000
0aaaaa

#680000
1aaaaa
1aaaak

#685000
0aaaaa

#690000
1aaaaa

#695000
0aaaaa

#700000
1aaaaa
0aaaak

#705000
0aaaaa

#710000
1aaaaa

#715000
0aaaaa

#720000
1aaaaa
1aaaak

#725000
0aaaaa

#730000
1aaaaa

#735000
0aaaaa

#740000
1aaaaa
0aaaak

#745000
0aaaaa

#750000
1aaaaa

#755000
0aaaaa

#760000
1aaaaa
1aaaak

#765000
0aaaaa

#770000
1aaaaa

#775000
0aaaaa

#780000
1aaaaa
0aaaak

#785000
0aaaaa

#790000
1aaaaa

#795000
0aaaaa

#800000
1aaaaa
1aaaak

#805000
0aaaaa

#810000
1aaaaa
b0 aaaah

#815000
0aaaaa

#820000
1aaaaa
0aaaak

#825000
0aaaaa

#830000
1aaaaa
1aaaaj

#835000
0aaaaa

#840000
1aaaaa
1aaaak

#845000
0aaaaa

#850000
1aaaaa
0aaaaj

#855000
0aaaaa

#860000
1aaaaa
0aaaak

#865000
0aaaaa

#870000
1aaaaa

#875000
0aaaaa

#880000
1aaaaa
1aaaak

#885000
0aaaaa

#890000
1aaaaa

#895000
0aaaaa

#900000
1aaaaa
0aaaak

#905000
0aaaaa

#910000
1aaaaa
1aaaaj

#915000
0aaaaa

#920000
1aaaaa
1aaaak

#925000
0aaaaa

#930000
1aaaaa

#935000
0aaaaa

#940000
1aaaaa
0aaaak

#945000
0aaaaa

#950000
1aaaaa

#955000
0aaaaa

#960000
1aaaaa
1aaaak

#965000
0aaaaa

#970000
1aaaaa

#975000
0aaaaa

#980000
1aaaaa
0aaaak

#985000
0aaaaa

#990000
1aaaaa
0aaaaj

#995000
0aaaaa

#1000000
1aaaaa
1aaaak

#1005000
0aaaaa

#1010000
1aaaaa

#1015000
0aaaaa

#1020000
1aaaaa
0aaaak

#1025000
0aaaaa

#1030000
1aaaaa
1aaaaj

#1035000
0aaaaa

#1040000
1aaaaa
1aaaak

#1045000
0aaaaa

#1050000
1aaaaa

#1055000
0aaaaa

#1060000
1aaaaa
0aaaak

#1065000
0aaaaa

#1070000
1aaaaa
0aaaaj

#1075000
0aaaaa

#1080000
1aaaaa
1aaaak

#1085000
0aaaaa

#1090000
1aaaaa

#1095000
0aaaaa

#1100000
1aaaaa
0aaaak

#1105000
0aaaaa

#1110000
1aaaaa
1aaaaj

#1115000
0aaaaa

#1120000
1aaaaa
1aaaak

#1125000
0aaaaa

#1130000
1aaaaa

#1135000
0aaaaa

#1140000
1aaaaa
0aaaak

#1145000
0aaaaa

#1150000
1aaaaa

#1155000
0aaaaa

#1160000
1aaaaa
1aaaak

#1165000
0aaaaa

#1170000
1aaaaa

#1175000
0aaaaa

#1180000
1aaaaa
0aaaak

#1185000
0aaaaa

#1190000
1aaaaa
0aaaaj

#1195000
0aaaaa

#1200000
1aaaaa
1aaaak

#1205000
0aaaaa

#1210000
1aaaaa
b1101011 aaaah

#1215000
0aaaaa

#1220000
1aaaaa
0aaaak

#1225000
0aaaaa

#1230000
1aaaaa
1aaaaj

#1235000
0aaaaa

#1240000
1aaaaa
1aaaak

#1245000
0aaaaa

#1250000
1aaaaa

#1255000
0aaaaa

#1260000
1aaaaa
0aaaak

#1265000
0aaaaa

#1270000
1aaaaa

#1275000
0aaaaa

#1280000
1aaaaa
1aaaak

#1285000
0aaaaa

#1290000
1aaaaa

#1295000
0aaaaa

#1300000
1aaaaa
0aaaak

#1305000
0aaaaa

#1310000
1aaaaa
0aaaaj

#1315000
0aaaaa

#1320000
1aaaaa
1aaaak

#1325000
0aaaaa

#1330000
1aaaaa

#1335000
0aaaaa

#1340000
1aaaaa
0aaaak

#1345000
0aaaaa

#1350000
1aaaaa

#1355000
0aaaaa

#1360000
1aaaaa
1aaaak

#1365000
0aaaaa

#1370000
1aaaaa

#1375000
0aaaaa

#1380000
1aaaaa
0aaaak

#1385000
0aaaaa

#1390000
1aaaaa
1aaaaj

#1395000
0aaaaa

#1400000
1aaaaa
1aaaak

#1405000
0aaaaa

#1410000
1aaaaa

#1415000
0aaaaa

#1420000
1aaaaa
0aaaak

#1425000
0aaaaa

#1430000
1aaaaa
0aaaaj

#1435000
0aaaaa

#1440000
1aaaaa
1aaaak

#1445000
0aaaaa

#1450000
1aaaaa

#1455000
0aaaaa

#1460000
1aaaaa
0aaaak

#1465000
0aaaaa

#1470000
1aaaaa
1aaaaj

#1475000
0aaaaa

#1480000
1aaaaa
1aaaak

#1485000
0aaaaa

#1490000
1aaaaa

#1495000
0aaaaa

#1500000
1aaaaa
0aaaak

#1505000
0aaaaa

#1510000
1aaaaa
0aaaaj

#1515000
0aaaaa

#1520000
1aaaaa
1aaaak

#1525000
0aaaaa

#1530000
1aaaaa

#1535000
0aaaaa

#1540000
1aaaaa
0aaaak

#1545000
0aaaaa

#1550000
1aaaaa

#1555000
0aaaaa

#1560000
1aaaaa
1aaaak

#1565000
0aaaaa

#1570000
1aaaaa

#1575000
0aaaaa

#1580000
1aaaaa
0aaaak

#1585000
0aaaaa

#1590000
1aaaaa
1aaaaj

#1595000
0aaaaa

#1600000
1aaaaa
1aaaak

#1605000
0aaaaa

#1610000
1aaaaa

#1615000
0aaaaa

#1620000
1aaaaa
0aaaak

#1625000
0aaaaa

#1630000
1aaaaa

#1635000
0aaaaa

#1640000
1aaaaa
1aaaak

#1645000
0aaaaa

#1650000
1aaaaa

#1655000
0aaaaa

#1660000
1aaaaa
0aaaak

#1665000
0aaaaa

#1670000
1aaaaa
0aaaaj

#1675000
0aaaaa

#1680000
1aaaaa
1aaaak

#1685000
0aaaaa

#1690000
1aaaaa

#1695000
0aaaaa

#1700000
1aaaaa
0aaaak

#1705000
0aaaaa

#1710000
1aaaaa
1aaaaj

#1715000
0aaaaa

#1720000
1aaaaa
1aaaak

#1725000
0aaaaa

#1730000
1aaaaa

#1735000
0aaaaa

#1740000
1aaaaa
0aaaak

#1745000
0aaaaa

#1750000
1aaaaa

#1755000
0aaaaa

#1760000
1aaaaa
1aaaak

#1765000
0aaaaa

#1770000
1aaaaa

#1775000
0aaaaa

#1780000
1aaaaa
0aaaak

#1785000
0aaaaa

#1790000
1aaaaa
0aaaaj

#1795000
0aaaaa

#1800000
1aaaaa
1aaaak

#1805000
0aaaaa

#1810000
1aaaaa

#1815000
0aaaaa

#1820000
1aaaaa
0aaaak

#1825000
0aaaaa

#1830000
1aaaaa
1aaaaj

#1835000
0aaaaa

#1840000
1aaaaa
1aaaak

#1845000
0aaaaa

#1850000
1aaaaa

#1855000
0aaaaa

#1860000
1aaaaa
0aaaak

#1865000
0aaaaa

#1870000
1aaaaa

#1875000
0aaaaa

#1880000
1aaaaa
1aaaak

#1885000
0aaaaa

#1890000
1aaaaa

#1895000
0aaaaa

#1900000
1aaaaa
0aaaak

#1905000
0aaaaa

#1910000
1aaaaa

#1915000
0aaaaa

#1920000
1aaaaa
1aaaak

#1925000
0aaaaa

#1930000
1aaaaa

#1935000
0aaaaa

#1940000
1aaaaa
0aaaak

#1945000
0aaaaa

#1950000
1aaaaa
0aaaaj

#1955000
0aaaaa

#1960000
1aaaaa
1aaaak

#1965000
0aaaaa

#1970000
1aaaaa
1aaaaj

#1975000
0aaaaa

#1980000
1aaaaa

#1985000
0aaaaa

#1990000
1aaaaa
b1 aaaae
1aaaai

#1995000
0aaaaa

#2000000
1aaaaa
b10000000000000000000000000010000 aaaac

#2005000
0aaaaa

#2010000
1aaaaa
b1100101011011011 aaaae

#2015000
0aaaaa

#2020000
1aaaaa
b1000000000000000000000000001000 aaaac
1aaaaf

#2025000
0aaaaa

#2030000
1aaaaa
b1100101011011011 aaaad
0aaaaf

#2035000
0aaaaa

#2040000
1aaaaa
b10000000000000000000000000000100 aaaac
1aaaaf

#2045000
0aaaaa

#2050000
1aaaaa
b11010100000000 aaaad
0aaaaf

#2055000
0aaaaa

#2060000
1aaaaa
b10000000000000000000000000001000 aaaac
1aaaaf

#2065000
0aaaaa

#2070000
1aaaaa
b1110000000000000000 aaaad
0aaaaf

#2075000
0aaaaa

#2080000
1aaaaa
b10000000000000000000000000001100 aaaac

#2085000
0aaaaa

#2090000
1aaaaa
b0 aaaae

#2095000
0aaaaa

#2100000
1aaaaa

#2105000
0aaaaa

#2110000
1aaaaa
0aaaaj

#2115000
0aaaaa

#2120000
1aaaaa
0aaaak

#2125000
0aaaaa

#2130000
1aaaaa
0aaaai

#2135000
0aaaaa

#2140000
1aaaaa
1aaaak

#2145000
0aaaaa

#2150000
1aaaaa

#2155000
0aaaaa

#2160000
1aaaaa
0aaaak

#2165000
0aaaaa

#2170000
1aaaaa
1aaaaj

#2175000
0aaaaa

#2180000
1aaaaa
1aaaak

#2185000
0aaaaa

#2190000
1aaaaa

#2195000
0aaaaa

#2200000
1aaaaa
0aaaak

#2205000
0aaaaa

#2210000
1aaaaa

#2215000
0aaaaa

#2220000
1aaaaa
1aaaak

#2225000
0aaaaa

#2230000
1aaaaa

#2235000
0aaaaa

#2240000
1aaaaa
0aaaak

#2245000
0aaaaa

#2250000
1aaaaa
0aaaaj

#2255000
0aaaaa

#2260000
1aaaaa
1aaaak

#2265000
0aaaaa

#2270000
1aaaaa

#2275000
0aaaaa

#2280000
1aaaaa
0aaaak

#2285000
0aaaaa

#2290000
1aaaaa
1aaaaj

